{
  "$schema": "https://json.schemastore.org/nest-cli",
  "collection": "@nestjs/schematics",
  "sourceRoot": "src",
  "projects": {
    "config": {
      "type": "library",
      "root": "libs/config",
      "entryFile": "index",
      "sourceRoot": "libs/config/src",
      "compilerOptions": {
        "tsConfigPath": "libs/config/tsconfig.lib.json"
      }
    },
    "dbo": {
      "type": "library",
      "root": "libs/dbo",
      "entryFile": "index",
      "sourceRoot": "libs/dbo/src",
      "compilerOptions": {
        "tsConfigPath": "libs/dbo/tsconfig.lib.json"
      }
    }
  },
  "compilerOptions": {
    "webpack": true
  }
}